…
Order by average delay, worst to best.

*(Hint: Be sure to remove each `_` before running the code)*

``` r
flights %>% 
  drop_na(arr_delay) %>%
  left_join(airports, by = c("dest" = "faa")) %>%
  group_by(name) %>%
  summarise(distance = first(distance), delay = mean(arr_delay)) %>%
  arrange(desc (delay))
```

    ## # A tibble: 101 × 3
    ##    name                          distance delay
    ##    <chr>                            <dbl> <dbl>
    ##  1 Columbia Metropolitan              602  41.8
    ##  2 Tulsa Intl                        1215  33.7
    ##  3 Will Rogers World                 1325  30.6
    ##  4 Jackson Hole Airport              1874  28.1
    ##  5 Mc Ghee Tyson                      631  24.1
    ##  6 Dane Co Rgnl Truax Fld             799  20.2
    ##  7 Richmond Intl                      277  20.1
    ##  8 Akron Canton Regional Airport      397  19.7
    ##  9 Des Moines Intl                   1017  19.0
    ## 10 Gerald R Ford Intl                 605  18.2
    ## # … with 91 more rows
…
``` r
dim(airports)
```

    ## [1] 1458    8

``` r
airports %>%
  semi_join(flights, by = c("faa" = "dest"))%>%
  select(faa)
```

    ## # A tibble: 101 × 1
    ##    faa  
    ##    <chr>
    ##  1 ABQ  
    ##  2 ACK  
    ##  3 ALB  
    ##  4 ANC  
    ##  5 ATL  
    ##  6 AUS  
    ##  7 AVL  
    ##  8 BDL  
    ##  9 BGR  
    ## 10 BHM  
    ## # … with 91 more rows
…
    ## # A tibble: 2 × 1
    ##   plays 
    ##   <chr> 
    ## 1 guitar
    ## 2 bass

``` r
flights %>% 
  distinct(carrier, origin) %>% 
  arrange(carrier)
```

    ## # A tibble: 35 × 2
    ##    carrier origin
    ##    <chr>   <chr> 
    ##  1 9E      JFK   
    ##  2 9E      EWR   
    ##  3 9E      LGA   
    ##  4 AA      JFK   
    ##  5 AA      LGA   
    ##  6 AA      EWR   
    ##  7 AS      EWR   
    ##  8 B6      JFK   
    ##  9 B6      EWR   
    ## 10 B6      LGA   
    ## # … with 25 more rows
…
